[gd_scene load_steps=3 format=2]

[ext_resource path="res://scripts/Levels.gd" type="Script" id=1]
[ext_resource path="res://fontB.tres" type="DynamicFont" id=2]

[node name="Node" type="Node"]

script = ExtResource( 1 )

[node name="Button1" type="Button" parent="." index="0"]

anchor_left = 0.0
anchor_top = 0.0
anchor_right = 0.0
anchor_bottom = 0.0
margin_left = 64.0
margin_top = 64.0
margin_right = 160.0
margin_bottom = 128.0
rect_pivot_offset = Vector2( 0, 0 )
rect_clip_content = false
focus_mode = 2
mouse_filter = 0
mouse_default_cursor_shape = 0
size_flags_horizontal = 1
size_flags_vertical = 1
custom_fonts/font = ExtResource( 2 )
toggle_mode = false
enabled_focus_mode = 2
shortcut = null
group = null
text = "01"
flat = false
align = 1
_sections_unfolded = [ "custom_fonts" ]

[node name="Button2" type="Button" parent="." index="1"]

anchor_left = 0.0
anchor_top = 0.0
anchor_right = 0.0
anchor_bottom = 0.0
margin_left = 224.0
margin_top = 64.0
margin_right = 320.0
margin_bottom = 128.0
rect_pivot_offset = Vector2( 0, 0 )
rect_clip_content = false
focus_mode = 2
mouse_filter = 0
mouse_default_cursor_shape = 0
size_flags_horizontal = 1
size_flags_vertical = 1
custom_fonts/font = ExtResource( 2 )
toggle_mode = false
enabled_focus_mode = 2
shortcut = null
group = null
text = "02"
flat = false
align = 1
_sections_unfolded = [ "custom_fonts" ]

[node name="Button3" type="Button" parent="." index="2"]

anchor_left = 0.0
anchor_top = 0.0
anchor_right = 0.0
anchor_bottom = 0.0
margin_left = 384.0
margin_top = 64.0
margin_right = 480.0
margin_bottom = 128.0
rect_pivot_offset = Vector2( 0, 0 )
rect_clip_content = false
focus_mode = 2
mouse_filter = 0
mouse_default_cursor_shape = 0
size_flags_horizontal = 1
size_flags_vertical = 1
custom_fonts/font = ExtResource( 2 )
toggle_mode = false
enabled_focus_mode = 2
shortcut = null
group = null
text = "03"
flat = false
align = 1
_sections_unfolded = [ "custom_fonts" ]

[node name="Button4" type="Button" parent="." index="3"]

anchor_left = 0.0
anchor_top = 0.0
anchor_right = 0.0
anchor_bottom = 0.0
margin_left = 544.0
margin_top = 64.0
margin_right = 640.0
margin_bottom = 128.0
rect_pivot_offset = Vector2( 0, 0 )
rect_clip_content = false
focus_mode = 2
mouse_filter = 0
mouse_default_cursor_shape = 0
size_flags_horizontal = 1
size_flags_vertical = 1
custom_fonts/font = ExtResource( 2 )
toggle_mode = false
enabled_focus_mode = 2
shortcut = null
group = null
text = "04"
flat = false
align = 1
_sections_unfolded = [ "custom_fonts" ]

[node name="Button5" type="Button" parent="." index="4"]

anchor_left = 0.0
anchor_top = 0.0
anchor_right = 0.0
anchor_bottom = 0.0
margin_left = 704.0
margin_top = 64.0
margin_right = 800.0
margin_bottom = 128.0
rect_pivot_offset = Vector2( 0, 0 )
rect_clip_content = false
focus_mode = 2
mouse_filter = 0
mouse_default_cursor_shape = 0
size_flags_horizontal = 1
size_flags_vertical = 1
custom_fonts/font = ExtResource( 2 )
toggle_mode = false
enabled_focus_mode = 2
shortcut = null
group = null
text = "05"
flat = false
align = 1
_sections_unfolded = [ "custom_fonts" ]

[node name="Button6" type="Button" parent="." index="5"]

anchor_left = 0.0
anchor_top = 0.0
anchor_right = 0.0
anchor_bottom = 0.0
margin_left = 864.0
margin_top = 64.0
margin_right = 960.0
margin_bottom = 128.0
rect_pivot_offset = Vector2( 0, 0 )
rect_clip_content = false
focus_mode = 2
mouse_filter = 0
mouse_default_cursor_shape = 0
size_flags_horizontal = 1
size_flags_vertical = 1
custom_fonts/font = ExtResource( 2 )
toggle_mode = false
enabled_focus_mode = 2
shortcut = null
group = null
text = "06"
flat = false
align = 1
_sections_unfolded = [ "custom_fonts" ]

[node name="Button7" type="Button" parent="." index="6"]

anchor_left = 0.0
anchor_top = 0.0
anchor_right = 0.0
anchor_bottom = 0.0
margin_left = 64.0
margin_top = 160.0
margin_right = 160.0
margin_bottom = 224.0
rect_pivot_offset = Vector2( 0, 0 )
rect_clip_content = false
focus_mode = 2
mouse_filter = 0
mouse_default_cursor_shape = 0
size_flags_horizontal = 1
size_flags_vertical = 1
custom_fonts/font = ExtResource( 2 )
toggle_mode = false
enabled_focus_mode = 2
shortcut = null
group = null
text = "07"
flat = false
align = 1
_sections_unfolded = [ "custom_fonts" ]


